<svg version="1.1" viewBox="0 0 1000 1000" xmlns="http://www.w3.org/2000/svg" xmlns:xlink="http://www.w3.org/1999/xlink">
<title>Logo 1forma-tic.fr</title>
<defs>
<linearGradient id="b" x1="0" x2="0" y1="0" y2="1"><stop stop-color="#7af" offset=".2"/><stop stop-color="#7af" stop-opacity="0" offset="1"/></linearGradient>
<linearGradient id="g" x1="0" x2="0" y1="0" y2="1"><stop stop-color="#ad0" offset=".2"/><stop stop-color="#ad0" stop-opacity="0" offset="1"/></linearGradient>
</defs>
<g fill="#ad0"><g id="m">
<path fill="#d84" d="m385.2 394.9c-14.9-0.5-61.2 31.3-95.2 35-85.2 9.5-116.6 1-153.6 34 51.2 23.6 105.5 83.6 142 103.5 81.6 12.6 204.3 92.5 221.6 198.9 3-105 10 0 0-106.4-8.3-90.7-17.2-98-18.6-99-31-24.9-96.2-83.7-96.2-166z"/>
<path fill="#d60" d="m404.5 359.4c-0.8 0-1.9 0.6-3.4 2-33 33.5-48.4 93-33 139.3 10.2 30.9 32.4 58.8 52 109.2 10-10 50-60 61.8-48.7-1.8-11.3-63.8-60.5-83.8-110.5-10.3-25.8-5-59.6 8.3-88.5 0.2-0.5-0-2.9-1.9-2.9z"/>
<path opacity=".25" d="m36.9 354c6.8 0 14.7 6 19 15.9 13.2 29.7 6.4 70.7 14.4 130.8-7.6 7.9-20.5 19.4 9.8 53.3 33.3 37.3 30 30 70 74 57 62.8 66 59.6 70 56-50-40-90-90-120-120-14.6-14.6-47.9-44.9-21-58.8 41-21.2 135 90.7 181 108.8 26.9 10.6 44.4 1.5 105 44.5 55.9 39.6 76.8 74 84.5 111.4 6.1 29.8 5 59.9 5 75v69.9c6.2 4.6 10.2 11.9 10.2 20.1 0 13.7-11.3 25-25 25s-25-11.3-25-25c0-8 3.8-15.2 9.8-19.8v-28.9c-9.3 1.5-20.9 0.9-34.8-1.7v50.4c6 4.6 10 11.8 10 20 0 13.7-11.3 25-25 25s-25-11.3-25-25c0-8.1 3.9-15.4 10-20v-57.6c-12.9-3.2-22.5-5-30.2-6.5v19.1c6 4.6 10 11.8 10 20 0 13.7-11.3 25-25 25-13.7 0-25-11.3-25-25 0-8.1 3.9-15.4 10-20v-40c-10.8-47.3-62.1-50.8-173.1-127.7-61.6-42.7-19-29.4-93.7-165.3-28.7-52.3-6.2-34.4-8.2-183.3-0.2-13.8 5.4-19.6 12.2-19.6z"/>
<path d="m36.9 354c6.8 0 14.7 6 19 15.9 13.2 29.7 6.4 70.7 14.4 130.8-7.6 7.9-20.5 19.4 9.8 53.3 33.3 37.3 30 30 70 74 57 62.8 66 59.6 70 56-50-40-90-90-120-120-14.6-14.6-47.9-44.9-21-58.8 41-21.2 135 90.7 181 108.8 26.9 10.6 44.4 1.5 105 44.5 55.9 39.6 76.8 74 84.5 111.4 6.1 29.8 5 59.9 5 75v69.9c6.2 4.6 10.2 11.9 10.2 20.1 0 13.7-11.3 25-25 25s-25-11.3-25-25c0-8 3.8-15.2 9.8-19.8l0,-23 -34.8,0 0,43c6 4.6 10 11.8 10 20 0 13.7-11.3 25-25 25s-25-11.3-25-25c0-8.1 3.9-15.4 10-20v-57.6c-12.9-3.2-22.5-5-30.2-6.5v19.1c6 4.6 10 11.8 10 20 0 13.7-11.3 25-25 25-13.7 0-25-11.3-25-25 0-8.1 3.9-15.4 10-20v-40c-10.8-47.3-62.1-50.8-173.1-127.7-61.6-42.7-19-29.4-93.7-165.3-28.7-52.3-6.2-34.4-8.2-183.3-0.2-13.8 5.4-19.6 12.2-19.6zm183.1 270.9a5 5 0 0 0-5 5 5 5 0 0 0 5 5 5 5 0 0 0 2.5-0.7l23.2 23.2a1.3 1.3 0 0 0 0.9 0.4l43-0.1 32.1 32.1a10 10 0 0 0-2 4.9h-49.8a1.3 1.3 0 0 0-0.9 0.4l-14.2 13.8-74.3-0.1-16.2-16.2a5 5 0 0 0 0.7-2.5 5 5 0 0 0-5-5 5 5 0 0 0-5 5 5 5 0 0 0 5 5 5 5 0 0 0 2.5-0.7l16.6 16.6a1.3 1.3 0 0 0 0.9 0.4l75.3 0.1a1.3 1.3 0 0 0 0.9-0.4l14.2-13.8h49.3a10 10 0 0 0 1.2 3.7l-27.8 27.2a2.5 2.5 0 0 0-0.8 1.8l0 42.2a2.5 2.5 0 0 0 0.7 1.8l19.3 19.2v6l-27.7-27.8a5 5 0 0 0 0.2-1.3 5 5 0 0 0-5-5 5 5 0 0 0-1.3 0.2l-23.8-23.9a5 5 0 0 0 0.2-1.3 5 5 0 0 0-0.7-2.5l23.2-23.2a5 5 0 0 0 2.5 0.7 5 5 0 0 0 5-5 5 5 0 0 0-5-5 5 5 0 0 0-5 5 5 5 0 0 0 0.7 2.5l-23.2 23.2a5 5 0 0 0-2.5-0.7 5 5 0 0 0-2.5 0.7l-16.6-16.6a1.3 1.3 0 0 0-0.9-0.4h-53.5l-36.2-36.2a5 5 0 0 0 0.7-2.5 5 5 0 0 0-5-5 5 5 0 0 0-5 5 5 5 0 0 0 5 5 5 5 0 0 0 2.5-0.7l36.6 36.6a1.3 1.3 0 0 0 0.9 0.4h53.5l16.2 16.2a5 5 0 0 0-0.7 2.5 5 5 0 0 0 5 5 5 5 0 0 0 1.3-0.2l23.8 23.9a5 5 0 0 0-0 0h-24.6l-29.6-29.6a1.3 1.3 0 0 0-0.9-0.4h-15.2a5 5 0 0 0-4.8-3.8 5 5 0 0 0-5 5 5 5 0 0 0 5 5 5 5 0 0 0 4.8-3.8h14.6l29.6 29.6a1.3 1.3 0 0 0 0.9 0.4h25.1a5 5 0 0 0 4.8 3.8 5 5 0 0 0 1.3-0.2l28.9 29a5 5 0 0 0-0.2 1.3 5 5 0 0 0 2.5 4.3v31.8a10 10 0 0 0-7.5 9.7 10 10 0 0 0 5 8.6v36.3a15 15 0 0 0-10.2 14.2 15 15 0 0 0 15 15 15 15 0 0 0 15-15 15 15 0 0 0-9.8-14v-36.4a10 10 0 0 0 5-8.7 10 10 0 0 0-1.4-5l58.2-58a2.5 2.5 0 0 0 0.7-1.8v-5.7a5 5 0 0 0 2.5-4.3 5 5 0 0 0-5-5 5 5 0 0 0-5 5 5 5 0 0 0 2.5 4.3v4.6l-57.4 57.3a10 10 0 0 0-2.6-1v-31.8a5 5 0 0 0 2.5-4.3 5 5 0 0 0-2.5-4.3v-8.8a2.5 2.5 0 0 0-0.7-1.8l-19.3-19.2-0-40 27-26.4a10 10 0 0 0 5.2 1.5 10 10 0 0 0 5-1.4l62.8 62.4v71.9l-17.4 17.4a10 10 0 0 0-5-1.4 10 10 0 0 0-5 1.4l-7.4-7.4v-27.9l29.3-29.3a2.5 2.5 0 0 0 0.7-1.8v-20a2.5 2.5 0 0 0-0.7-1.8l-46.9-46.9a5 5 0 0 0 0.2-1.3 5 5 0 0 0-5-5 5 5 0 0 0-5 5 5 5 0 0 0 5 5 5 5 0 0 0 1.3-0.2l46.2 46.2v17.9l-29.3 29.3a2.5 2.5 0 0 0-0.7 1.8v30a2.5 2.5 0 0 0 0.7 1.8l8.2 8.2a10 10 0 0 0-1.4 5 10 10 0 0 0 5 8.6v67.2a15 15 0 0 0-10 14.1 15 15 0 0 0 15 15 15 15 0 0 0 15-15 15 15 0 0 0-10-14.1v-67.2a10 10 0 0 0 5-8.7 10 10 0 0 0-1.4-5l18.2-18.2a2.5 2.5 0 0 0 0.7-1.8v-74a2.5 2.5 0 0 0-0.7-1.8l-63.5-63.2a10 10 0 0 0 1.3-3.8h19.7l6.1 6.1a5 5 0 0 0-0.7 2.5 5 5 0 0 0 5 5 5 5 0 0 0 5-5 5 5 0 0 0-5-5 5 5 0 0 0-2.5 0.7l-6.5-6.5a1.3 1.3 0 0 0-0.9-0.4h-20.2a10 10 0 0 0-1.6-4.3l19.2-16.4a5 5 0 0 0 2.9 0.9 5 5 0 0 0 5-5 5 5 0 0 0-5-5 5 5 0 0 0-5 5 5 5 0 0 0 0.5 2.2l-19.2 16.4a10 10 0 0 0-5.5-2.5v-25.3a5 5 0 0 0 3.8-4.8 5 5 0 0 0-5-5 5 5 0 0 0-5 5 5 5 0 0 0 3.8 4.8v25.3a10 10 0 0 0-4.9 2l-32.5-32.5a1.3 1.3 0 0 0-0.9-0.4l-43 0.1-22.8-22.8a5 5 0 0 0 0.7-2.5 5 5 0 0 0-5-5zm157.3 99.8a5 5 0 0 0-5 5 5 5 0 0 0 5 5 5 5 0 0 0 1.3-0.2l28.9 28.9v56.5a2.5 2.5 0 0 0 0.7 1.8l19.3 19.3v39a2.5 2.5 0 0 0 0.7 1.8l3.2 3.2a10 10 0 0 0-1.4 5 10 10 0 0 0 5 8.6v22.2a15 15 0 0 0-10 14.1 15 15 0 0 0 15 15 15 15 0 0 0 15-15 15 15 0 0 0-10-14.1v-22.2a10 10 0 0 0 5-8.7 10 10 0 0 0-7.5-9.7v-44.3a2.5 2.5 0 0 0-0.7-1.8l-19.3-19.3v-56.9a2.5 2.5 0 0 0-0.7-1.8l-9.3-9.3v-5.9l5.2-5h4.6l5.2 5v58.9a2.5 2.5 0 0 0 0.7 1.8l6.9 6.9a5 5 0 0 0-0.2 1.3 5 5 0 0 0 5 5 5 5 0 0 0 5-5 5 5 0 0 0-5-5 5 5 0 0 0-1.3 0.2l-6.2-6.2v-59a2.5 2.5 0 0 0-0.8-1.8l-6.7-6.4a2.5 2.5 0 0 0-1.7-0.7h-6.7a2.5 2.5 0 0 0-1.7 0.7l-6.7 6.4a2.5 2.5 0 0 0-0.8 1.8v8a2.5 2.5 0 0 0 0.7 1.8l9.3 9.3v56.9a2.5 2.5 0 0 0 0.7 1.8l19.3 19.3v43.3a10 10 0 0 0-2.6 1l-2.4-2.4v-39a2.5 2.5 0 0 0-0.7-1.8l-19.3-19.3v-56.5a2.5 2.5 0 0 0-0.7-1.8l-29.6-29.6a5 5 0 0 0 0.2-1.3 5 5 0 0 0-5-5zm-37.3 25.2a15 15 0 0 0-15 15 15 15 0 0 0 15 15 15 15 0 0 0 15-15 15 15 0 0 0-15-15z"/>
</g></g>
<g fill="url(#g)"><g id="d"><rect x="389" y="890" width="36" height="50"/><rect x="329.4" y="870" width="31" height="50"/></g></g>
<g transform="scale(-1 1)"><use xlink:href="#m" x="-1e3" fill="#7af"/><use xlink:href="#d" x="-1e3" fill="url(#b)"/></g>
<path fill="#fa6" d="m640 230c-20 100-70 170-140 170s-120-70-140-170 40-200 140-200 160 100 140 200z"/>
</svg>
